Text Analyis
…
Clean data and prepare it for analysis

Ask questions about the data

Answer these questions with the data using tables and graphics

Each group member must have their own unique question that they code the answer for.

Gather data from Github and store the Harry Potter Complete 7 Books text in a datafrome

# sevenbook is a tidy text format dataframe including 7 novels
sevenbook

## # A tibble: 409,338 x 4
##    chapter      word              title series
##      <int>     <chr>              <chr>  <int>
##  1       1       boy philosophers_stone      1
##  2       1     lived philosophers_stone      1
##  3       1   dursley philosophers_stone      1
##  4       1    privet philosophers_stone      1
##  5       1     drive philosophers_stone      1
##  6       1     proud philosophers_stone      1
##  7       1 perfectly philosophers_stone      1
##  8       1    normal philosophers_stone      1
##  9       1    people philosophers_stone      1
## 10       1    expect philosophers_stone      1
## # ... with 409,328 more rows

1. Common words Analysis

** 1.1 What are top words in each book? **

# Top 10 words in each novel
top_words

## # A tibble: 70 x 3
## # Groups:   title [7]
##                 title      word     n
##                 <chr>     <chr> <int>
##  1 chamber_of_secrets     harry  1503
##  2 chamber_of_secrets       ron   650
##  3 chamber_of_secrets  hermione   289
##  4 chamber_of_secrets    malfoy   202
##  5 chamber_of_secrets  lockhart   197
##  6 chamber_of_secrets professor   190
##  7 chamber_of_secrets   weasley   157
##  8 chamber_of_secrets    looked   155
##  9 chamber_of_secrets      time   148
## 10 chamber_of_secrets      eyes   145
## # ... with 60 more rows
…
# The bar charts show that "looked", "eyes", "time"... are in the top words

2. Character analysis: How does the proportion of the three main characters change along with the series / chapters? How does the proportion of other characters change along with the series?

# Calculate the proportion of word in each novel

words_prop

## # A tibble: 63,651 x 5
##                   title series     word     n proportion
##                   <chr>  <int>    <chr> <int>      <dbl>
##  1 order_of_the_phoenix      5    harry  3730 0.03854222
##  2       goblet_of_fire      4    harry  2936 0.04040571
##  3      deathly_hallows      7    harry  2770 0.03773533
##  4    half_blood_prince      6    harry  2581 0.04090462
##  5  prisoner_of_azkaban      3    harry  1824 0.04428474
##  6   chamber_of_secrets      2    harry  1503 0.04470420
##  7 order_of_the_phoenix      5 hermione  1220 0.01260630
##  8   philosophers_stone      1    harry  1213 0.04243484
##  9 order_of_the_phoenix      5      ron  1189 0.01228598
## 10      deathly_hallows      7 hermione  1077 0.01467183
## # ... with 63,641 more rows

# Calculate the words' proportion by chapters in each novel
words_prop_chapter

## # A tibble: 215,433 x 6
##                   title chapter series  word     n proportion
##                   <chr>   <int>  <int> <chr> <int>      <dbl>
##  1   chamber_of_secrets      19      2 harry   173 0.05158020
##  2       goblet_of_fire      31      4 harry   161 0.05439189
##  3       goblet_of_fire      26      4 harry   159 0.05033238
##  4  prisoner_of_azkaban      21      3 harry   153 0.05694083
##  5       goblet_of_fire      28      4 harry   152 0.05175349
##  6 order_of_the_phoenix      35      5 harry   149 0.04623022
##  7 order_of_the_phoenix      24      5 harry   147 0.04766537
##  8    half_blood_prince      18      6 harry   145 0.05228994
##  9       goblet_of_fire      20      4 harry   144 0.05801773
## 10       goblet_of_fire      23      4 harry   144 0.04551201
## # ... with 215,423 more rows
…
